Tidying methods for rowwise_dfs from dplyr, for tidying each row and recombining the results — rowwise_df_tidiers • broom
…
regressions %>% tidy(mod)
#> # A tibble: 6 x 6
#> # Groups:   cyl [3]
#>     cyl term        estimate std.error statistic    p.value
#>   <dbl> <chr>          <dbl>     <dbl>     <dbl>      <dbl>
#> 1     4 (Intercept)    39.6      4.35       9.10 0.00000777
#> 2     4 wt             -5.65     1.85      -3.05 0.0137    
#> 3     6 (Intercept)    28.4      4.18       6.79 0.00105   
#> 4     6 wt             -2.78     1.33      -2.08 0.0918    
#> 5     8 (Intercept)    23.9      3.01       7.94 0.00000405
#> 6     8 wt             -2.19     0.739     -2.97 0.0118    
regressions %>% augment(mod)
#> # A tibble: 32 x 10
#> # Groups:   cyl [3]
#>      cyl   mpg    wt .fitted .se.fit  .resid   .hat .sigma   .cooksd .std.resid
#>    <dbl> <dbl> <dbl>   <dbl>   <dbl>   <dbl>  <dbl>  <dbl>     <dbl>      <dbl>
#>  1     4  22.8  2.32    26.5    1.01 -3.67   0.0913   3.26 0.0670       -1.16  
#>  2     4  24.4  3.19    21.6    1.95  2.84   0.343    3.31 0.289         1.05  
#>  3     4  22.8  3.15    21.8    1.89  1.02   0.321    3.51 0.0325        0.370 
#>  4     4  32.4  2.2     27.1    1.02  5.25   0.0932   2.95 0.141         1.66  
#>  5     4  30.4  1.62    30.5    1.60 -0.0513 0.230    3.53 0.0000457    -0.0175
#>  6     4  33.9  1.84    29.2    1.31  4.69   0.154    3.04 0.212         1.53  
#>  7     4  21.5  2.46    25.7    1.06 -4.15   0.101    3.18 0.0968       -1.31  
#>  8     4  27.3  1.94    28.6    1.20 -1.34   0.129    3.50 0.0138       -0.432 
#>  9     4  26    2.14    27.5    1.04 -1.49   0.0975   3.49 0.0119       -0.470 
#> 10     4  30.4  1.51    31.0    1.75 -0.627  0.275    3.52 0.00927      -0.221 
#> # … with 22 more rows
…
# we can also include the original dataset as a "data" argument
# to augment:
regressions <- mtcars %>%
    group_by(cyl) %>%
    do(mod = lm(mpg ~ wt, .), original = (.))

# this allows all the original columns to be included:
regressions %>% augment(mod)  # doesn't include all original
#> # A tibble: 32 x 10
#> # Groups:   cyl [3]
#>      cyl   mpg    wt .fitted .se.fit  .resid   .hat .sigma   .cooksd .std.resid
#>    <dbl> <dbl> <dbl>   <dbl>   <dbl>   <dbl>  <dbl>  <dbl>     <dbl>      <dbl>
#>  1     4  22.8  2.32    26.5    1.01 -3.67   0.0913   3.26 0.0670       -1.16  
#>  2     4  24.4  3.19    21.6    1.95  2.84   0.343    3.31 0.289         1.05  
#>  3     4  22.8  3.15    21.8    1.89  1.02   0.321    3.51 0.0325        0.370 
#>  4     4  32.4  2.2     27.1    1.02  5.25   0.0932   2.95 0.141         1.66  
#>  5     4  30.4  1.62    30.5    1.60 -0.0513 0.230    3.53 0.0000457    -0.0175
#>  6     4  33.9  1.84    29.2    1.31  4.69   0.154    3.04 0.212         1.53  
#>  7     4  21.5  2.46    25.7    1.06 -4.15   0.101    3.18 0.0968       -1.31  
#>  8     4  27.3  1.94    28.6    1.20 -1.34   0.129    3.50 0.0138       -0.432 
#>  9     4  26    2.14    27.5    1.04 -1.49   0.0975   3.49 0.0119       -0.470 
#> 10     4  30.4  1.51    31.0    1.75 -0.627  0.275    3.52 0.00927      -0.221 
#> # … with 22 more rows
regressions %>% augment(mod, data = original)  # includes all original
#> # A tibble: 32 x 18
#> # Groups:   cyl [3]
#>      mpg   cyl  disp    hp  drat    wt  qsec    vs    am  gear  carb .fitted
#>    <dbl> <dbl> <dbl> <dbl> <dbl> <dbl> <dbl> <dbl> <dbl> <dbl> <dbl>   <dbl>
#>  1  22.8     4 108      93  3.85  2.32  18.6     1     1     4     1    26.5
#>  2  24.4     4 147.     62  3.69  3.19  20       1     0     4     2    21.6
#>  3  22.8     4 141.     95  3.92  3.15  22.9     1     0     4     2    21.8
#>  4  32.4     4  78.7    66  4.08  2.2   19.5     1     1     4     1    27.1
#>  5  30.4     4  75.7    52  4.93  1.62  18.5     1     1     4     2    30.5
#>  6  33.9     4  71.1    65  4.22  1.84  19.9     1     1     4     1    29.2
#>  7  21.5     4 120.     97  3.7   2.46  20.0     1     0     3     1    25.7
#>  8  27.3     4  79      66  4.08  1.94  18.9     1     1     4     1    28.6
#>  9  26       4 120.     91  4.43  2.14  16.7     0     1     5     2    27.5
#> 10  30.4     4  95.1   113  3.77  1.51  16.9     1     1     5     2    31.0
#> # … with 22 more rows, and 6 more variables: .se.fit <dbl>, .resid <dbl>,
#> #   .hat <dbl>, .sigma <dbl>, .cooksd <dbl>, .std.resid <dbl>
…
