Tidy a(n) glmnet object — tidy.glmnet • broom
…
    tidied <- tidy(fit1) %>% filter(term != "(Intercept)")

    ggplot(tidied, aes(step, estimate, group = term)) + geom_line()
    ggplot(tidied, aes(lambda, estimate, group = term)) +
        geom_line() + scale_x_log10()

    ggplot(tidied, aes(lambda, dev.ratio)) + geom_line()

    # works for other types of regressions as well, such as logistic
    g2 <- sample(1:2, 100, replace=TRUE)
    fit2 <- glmnet(x, g2, family="binomial")
    tidy(fit2)
}
#> # A tibble: 947 x 5
#>    term         step estimate lambda dev.ratio
#>    <chr>       <dbl>    <dbl>  <dbl>     <dbl>
#>  1 (Intercept)     1  0.282   0.0906 -1.46e-15
#>  2 (Intercept)     2  0.281   0.0826  6.28e- 3
#>  3 V10             2  0.0138  0.0826  6.28e- 3
#>  4 V13             2 -0.0353  0.0826  6.28e- 3
#>  5 (Intercept)     3  0.279   0.0753  1.55e- 2
#>  6 V10             3  0.0538  0.0753  1.55e- 2
#>  7 V13             3 -0.0742  0.0753  1.55e- 2
#>  8 (Intercept)     4  0.277   0.0686  2.48e- 2
#>  9 V6              4  0.00225 0.0686  2.48e- 2
#> 10 V10             4  0.0907  0.0686  2.48e- 2
#> # … with 937 more rows
…
